{
  "project_info": {
    "project_number": "1089053794726",
    "firebase_url": "https://kwikpay-93828.firebaseio.com",
    "project_id": "kwikpay-93828",
    "storage_bucket": "kwikpay-93828.appspot.com"
  },
  "client": [
    {
      "client_info": {
        "mobilesdk_app_id": "1:1089053794726:android:257b2877d3e6258c",
        "android_client_info": {
          "package_name": "com.uk.recharge.kwikpay"
        }
      },
      "oauth_client": [
        {
          "client_id": "1089053794726-sb82iige4945av7d0uoio69d7c6b4kfd.apps.googleusercontent.com",
          "client_type": 3
        }
      ],
      "api_key": [
        {
          "current_key": "AIzaSyAnAp1u3u8a8iG7KHdFKy_BKHFpna_NMUU"
        }
      ],
      "services": {
        "analytics_service": {
          "status": 1
        },
        "appinvite_service": {
          "status": 1,
          "other_platform_oauth_client": []
        },
        "ads_service": {
          "status": 2
        }
      }
    }
  ],
  "configuration_version": "1"
}